%!PS-Adobe-3.0 EPSF-3.0
%%Creator: (MATLAB, The Mathworks, Inc. Version 9.6.0.1072779 \(R2019a\). Operating System: Windows 10)
%%Title: ./komparator.eps
%%CreationDate: 2019-05-16T09:31:03
%%Pages: (atend)
%%BoundingBox:    32     1   363   163
%%LanguageLevel: 3
%%EndComments
%%BeginProlog
%%BeginResource: procset (Apache XML Graphics Std ProcSet) 1.2 0
%%Version: 1.2 0
%%Copyright: (Copyright 2001-2003,2010 The Apache Software Foundation. License terms: http://www.apache.org/licenses/LICENSE-2.0)
/bd{bind def}bind def
/ld{load def}bd
/GR/grestore ld
/GS/gsave ld
/RM/rmoveto ld
/C/curveto ld
/t/show ld
/L/lineto ld
/ML/setmiterlimit ld
/CT/concat ld
/f/fill ld
/N/newpath ld
/S/stroke ld
/CC/setcmykcolor ld
/A/ashow ld
/cp/closepath ld
/RC/setrgbcolor ld
/LJ/setlinejoin ld
/GC/setgray ld
/LW/setlinewidth ld
/M/moveto ld
/re {4 2 roll M
1 index 0 rlineto
0 exch rlineto
neg 0 rlineto
cp } bd
/_ctm matrix def
/_tm matrix def
/BT { _ctm currentmatrix pop matrix _tm copy pop 0 0 moveto } bd
/ET { _ctm setmatrix } bd
/iTm { _ctm setmatrix _tm concat } bd
/Tm { _tm astore pop iTm 0 0 moveto } bd
/ux 0.0 def
/uy 0.0 def
/F {
  /Tp exch def
  /Tf exch def
  Tf findfont Tp scalefont setfont
  /cf Tf def  /cs Tp def
} bd
/ULS {currentpoint /uy exch def /ux exch def} bd
/ULE {
  /Tcx currentpoint pop def
  gsave
  newpath
  cf findfont cs scalefont dup
  /FontMatrix get 0 get /Ts exch def /FontInfo get dup
  /UnderlinePosition get Ts mul /To exch def
  /UnderlineThickness get Ts mul /Tt exch def
  ux uy To add moveto  Tcx uy To add lineto
  Tt setlinewidth stroke
  grestore
} bd
/OLE {
  /Tcx currentpoint pop def
  gsave
  newpath
  cf findfont cs scalefont dup
  /FontMatrix get 0 get /Ts exch def /FontInfo get dup
  /UnderlinePosition get Ts mul /To exch def
  /UnderlineThickness get Ts mul /Tt exch def
  ux uy To add cs add moveto Tcx uy To add cs add lineto
  Tt setlinewidth stroke
  grestore
} bd
/SOE {
  /Tcx currentpoint pop def
  gsave
  newpath
  cf findfont cs scalefont dup
  /FontMatrix get 0 get /Ts exch def /FontInfo get dup
  /UnderlinePosition get Ts mul /To exch def
  /UnderlineThickness get Ts mul /Tt exch def
  ux uy To add cs 10 mul 26 idiv add moveto Tcx uy To add cs 10 mul 26 idiv add lineto
  Tt setlinewidth stroke
  grestore
} bd
/QT {
/Y22 exch store
/X22 exch store
/Y21 exch store
/X21 exch store
currentpoint
/Y21 load 2 mul add 3 div exch
/X21 load 2 mul add 3 div exch
/X21 load 2 mul /X22 load add 3 div
/Y21 load 2 mul /Y22 load add 3 div
/X22 load /Y22 load curveto
} bd
/SSPD {
dup length /d exch dict def
{
/v exch def
/k exch def
currentpagedevice k known {
/cpdv currentpagedevice k get def
v cpdv ne {
/upd false def
/nullv v type /nulltype eq def
/nullcpdv cpdv type /nulltype eq def
nullv nullcpdv or
{
/upd true def
} {
/sametype v type cpdv type eq def
sametype {
v type /arraytype eq {
/vlen v length def
/cpdvlen cpdv length def
vlen cpdvlen eq {
0 1 vlen 1 sub {
/i exch def
/obj v i get def
/cpdobj cpdv i get def
obj cpdobj ne {
/upd true def
exit
} if
} for
} {
/upd true def
} ifelse
} {
v type /dicttype eq {
v {
/dv exch def
/dk exch def
/cpddv cpdv dk get def
dv cpddv ne {
/upd true def
exit
} if
} forall
} {
/upd true def
} ifelse
} ifelse
} if
} ifelse
upd true eq {
d k v put
} if
} if
} if
} forall
d length 0 gt {
d setpagedevice
} if
} bd
/RE { % /NewFontName [NewEncodingArray] /FontName RE -
  findfont dup length dict begin
  {
    1 index /FID ne
    {def} {pop pop} ifelse
  } forall
  /Encoding exch def
  /FontName 1 index def
  currentdict definefont pop
  end
} bind def
%%EndResource
%%BeginResource: procset (Apache XML Graphics EPS ProcSet) 1.0 0
%%Version: 1.0 0
%%Copyright: (Copyright 2002-2003 The Apache Software Foundation. License terms: http://www.apache.org/licenses/LICENSE-2.0)
/BeginEPSF { %def
/b4_Inc_state save def         % Save state for cleanup
/dict_count countdictstack def % Count objects on dict stack
/op_count count 1 sub def      % Count objects on operand stack
userdict begin                 % Push userdict on dict stack
/showpage { } def              % Redefine showpage, { } = null proc
0 setgray 0 setlinecap         % Prepare graphics state
1 setlinewidth 0 setlinejoin
10 setmiterlimit [ ] 0 setdash newpath
/languagelevel where           % If level not equal to 1 then
{pop languagelevel             % set strokeadjust and
1 ne                           % overprint to their defaults.
{false setstrokeadjust false setoverprint
} if
} if
} bd
/EndEPSF { %def
count op_count sub {pop} repeat            % Clean up stacks
countdictstack dict_count sub {end} repeat
b4_Inc_state restore
} bd
%%EndResource
%FOPBeginFontDict
%%IncludeResource: font Courier-Oblique
%%IncludeResource: font Courier-BoldOblique
%%IncludeResource: font Courier-Bold
%%IncludeResource: font ZapfDingbats
%%IncludeResource: font Symbol
%%IncludeResource: font Helvetica
%%IncludeResource: font Helvetica-Oblique
%%IncludeResource: font Helvetica-Bold
%%IncludeResource: font Helvetica-BoldOblique
%%IncludeResource: font Times-Roman
%%IncludeResource: font Times-Italic
%%IncludeResource: font Times-Bold
%%IncludeResource: font Times-BoldItalic
%%IncludeResource: font Courier
%FOPEndFontDict
%%BeginResource: encoding WinAnsiEncoding
/WinAnsiEncoding [
/.notdef /.notdef /.notdef /.notdef /.notdef
/.notdef /.notdef /.notdef /.notdef /.notdef
/.notdef /.notdef /.notdef /.notdef /.notdef
/.notdef /.notdef /.notdef /.notdef /.notdef
/.notdef /.notdef /.notdef /.notdef /.notdef
/.notdef /.notdef /.notdef /.notdef /.notdef
/.notdef /.notdef /space /exclam /quotedbl
/numbersign /dollar /percent /ampersand /quotesingle
/parenleft /parenright /asterisk /plus /comma
/hyphen /period /slash /zero /one
/two /three /four /five /six
/seven /eight /nine /colon /semicolon
/less /equal /greater /question /at
/A /B /C /D /E
/F /G /H /I /J
/K /L /M /N /O
/P /Q /R /S /T
/U /V /W /X /Y
/Z /bracketleft /backslash /bracketright /asciicircum
/underscore /quoteleft /a /b /c
/d /e /f /g /h
/i /j /k /l /m
/n /o /p /q /r
/s /t /u /v /w
/x /y /z /braceleft /bar
/braceright /asciitilde /bullet /Euro /bullet
/quotesinglbase /florin /quotedblbase /ellipsis /dagger
/daggerdbl /circumflex /perthousand /Scaron /guilsinglleft
/OE /bullet /Zcaron /bullet /bullet
/quoteleft /quoteright /quotedblleft /quotedblright /bullet
/endash /emdash /asciitilde /trademark /scaron
/guilsinglright /oe /bullet /zcaron /Ydieresis
/space /exclamdown /cent /sterling /currency
/yen /brokenbar /section /dieresis /copyright
/ordfeminine /guillemotleft /logicalnot /sfthyphen /registered
/macron /degree /plusminus /twosuperior /threesuperior
/acute /mu /paragraph /middot /cedilla
/onesuperior /ordmasculine /guillemotright /onequarter /onehalf
/threequarters /questiondown /Agrave /Aacute /Acircumflex
/Atilde /Adieresis /Aring /AE /Ccedilla
/Egrave /Eacute /Ecircumflex /Edieresis /Igrave
/Iacute /Icircumflex /Idieresis /Eth /Ntilde
/Ograve /Oacute /Ocircumflex /Otilde /Odieresis
/multiply /Oslash /Ugrave /Uacute /Ucircumflex
/Udieresis /Yacute /Thorn /germandbls /agrave
/aacute /acircumflex /atilde /adieresis /aring
/ae /ccedilla /egrave /eacute /ecircumflex
/edieresis /igrave /iacute /icircumflex /idieresis
/eth /ntilde /ograve /oacute /ocircumflex
/otilde /odieresis /divide /oslash /ugrave
/uacute /ucircumflex /udieresis /yacute /thorn
/ydieresis
] def
%%EndResource
%FOPBeginFontReencode
/Courier-Oblique findfont
dup length dict begin
  {1 index /FID ne {def} {pop pop} ifelse} forall
  /Encoding WinAnsiEncoding def
  currentdict
end
/Courier-Oblique exch definefont pop
/Courier-BoldOblique findfont
dup length dict begin
  {1 index /FID ne {def} {pop pop} ifelse} forall
  /Encoding WinAnsiEncoding def
  currentdict
end
/Courier-BoldOblique exch definefont pop
/Courier-Bold findfont
dup length dict begin
  {1 index /FID ne {def} {pop pop} ifelse} forall
  /Encoding WinAnsiEncoding def
  currentdict
end
/Courier-Bold exch definefont pop
/Helvetica findfont
dup length dict begin
  {1 index /FID ne {def} {pop pop} ifelse} forall
  /Encoding WinAnsiEncoding def
  currentdict
end
/Helvetica exch definefont pop
/Helvetica-Oblique findfont
dup length dict begin
  {1 index /FID ne {def} {pop pop} ifelse} forall
  /Encoding WinAnsiEncoding def
  currentdict
end
/Helvetica-Oblique exch definefont pop
/Helvetica-Bold findfont
dup length dict begin
  {1 index /FID ne {def} {pop pop} ifelse} forall
  /Encoding WinAnsiEncoding def
  currentdict
end
/Helvetica-Bold exch definefont pop
/Helvetica-BoldOblique findfont
dup length dict begin
  {1 index /FID ne {def} {pop pop} ifelse} forall
  /Encoding WinAnsiEncoding def
  currentdict
end
/Helvetica-BoldOblique exch definefont pop
/Times-Roman findfont
dup length dict begin
  {1 index /FID ne {def} {pop pop} ifelse} forall
  /Encoding WinAnsiEncoding def
  currentdict
end
/Times-Roman exch definefont pop
/Times-Italic findfont
dup length dict begin
  {1 index /FID ne {def} {pop pop} ifelse} forall
  /Encoding WinAnsiEncoding def
  currentdict
end
/Times-Italic exch definefont pop
/Times-Bold findfont
dup length dict begin
  {1 index /FID ne {def} {pop pop} ifelse} forall
  /Encoding WinAnsiEncoding def
  currentdict
end
/Times-Bold exch definefont pop
/Times-BoldItalic findfont
dup length dict begin
  {1 index /FID ne {def} {pop pop} ifelse} forall
  /Encoding WinAnsiEncoding def
  currentdict
end
/Times-BoldItalic exch definefont pop
/Courier findfont
dup length dict begin
  {1 index /FID ne {def} {pop pop} ifelse} forall
  /Encoding WinAnsiEncoding def
  currentdict
end
/Courier exch definefont pop
%FOPEndFontReencode
%%EndProlog
%%Page: 1 1
%%PageBoundingBox: 0 0 397 170
%%BeginPageSetup
[1 0 0 -1 0 170] CT
%%EndPageSetup
GS
[0.75019 0 0 0.74925 0 -0.07875] CT
1 GC
N
0 0 529 227 re
f
GR
GS
[0.75019 0 0 0.74925 0 -0.07875] CT
1 GC
N
0 0 529 227 re
f
GR
GS
[0.75019 0 0 0.74925 0 -0.07875] CT
1 GC
N
69 190 M
244 190 L
244 17 L
69 17 L
cp
f
GR
GS
[0.75019 0 0 0.74925 0 -0.07875] CT
0.873 GC
1 LJ
0.667 LW
N
69 190 M
69 17 L
S
GR
GS
[0.75019 0 0 0.74925 0 -0.07875] CT
0.873 GC
1 LJ
0.667 LW
N
127.333 190 M
127.333 17 L
S
GR
GS
[0.75019 0 0 0.74925 0 -0.07875] CT
0.873 GC
1 LJ
0.667 LW
N
185.667 190 M
185.667 17 L
S
GR
GS
[0.75019 0 0 0.74925 0 -0.07875] CT
0.873 GC
1 LJ
0.667 LW
N
244 190 M
244 17 L
S
GR
GS
[0.75019 0 0 0.74925 0 -0.07875] CT
0.873 GC
1 LJ
0.667 LW
N
244 190 M
69 190 L
S
GR
GS
[0.75019 0 0 0.74925 0 -0.07875] CT
0.873 GC
1 LJ
0.667 LW
N
244 17 M
69 17 L
S
GR
GS
[0.75019 0 0 0.74925 0 -0.07875] CT
0.149 GC
2 setlinecap
1 LJ
0.667 LW
N
69 190 M
244 190 L
S
GR
GS
[0.75019 0 0 0.74925 0 -0.07875] CT
0.149 GC
2 setlinecap
1 LJ
0.667 LW
N
69 17 M
244 17 L
S
GR
GS
[0.75019 0 0 0.74925 0 -0.07875] CT
0.149 GC
2 setlinecap
1 LJ
0.667 LW
N
69 190 M
69 188.25 L
S
GR
GS
[0.75019 0 0 0.74925 0 -0.07875] CT
0.149 GC
2 setlinecap
1 LJ
0.667 LW
N
127.333 190 M
127.333 188.25 L
S
GR
GS
[0.75019 0 0 0.74925 0 -0.07875] CT
0.149 GC
2 setlinecap
1 LJ
0.667 LW
N
185.667 190 M
185.667 188.25 L
S
GR
GS
[0.75019 0 0 0.74925 0 -0.07875] CT
0.149 GC
2 setlinecap
1 LJ
0.667 LW
N
244 190 M
244 188.25 L
S
GR
GS
[0.75019 0 0 0.74925 0 -0.07875] CT
0.149 GC
2 setlinecap
1 LJ
0.667 LW
N
69 17 M
69 18.75 L
S
GR
GS
[0.75019 0 0 0.74925 0 -0.07875] CT
0.149 GC
2 setlinecap
1 LJ
0.667 LW
N
127.333 17 M
127.333 18.75 L
S
GR
GS
[0.75019 0 0 0.74925 0 -0.07875] CT
0.149 GC
2 setlinecap
1 LJ
0.667 LW
N
185.667 17 M
185.667 18.75 L
S
GR
GS
[0.75019 0 0 0.74925 0 -0.07875] CT
0.149 GC
2 setlinecap
1 LJ
0.667 LW
N
244 17 M
244 18.75 L
S
GR
GS
[0.75019 0 0 0.74925 51.7631 145.0751] CT
0.149 GC
/Helvetica 12 F
GS
[1 0 0 1 0 0] CT
-10 13 moveto 
1 -1 scale
(min) t 
GR
GR
GS
[0.75019 0 0 0.74925 95.52417 145.0751] CT
0.149 GC
/Helvetica 12 F
GS
[1 0 0 1 0 0] CT
-5 13 moveto 
1 -1 scale
(le) t 
GR
GR
GS
[0.75019 0 0 0.74925 139.28524 145.0751] CT
0.149 GC
/Helvetica 12 F
GS
[1 0 0 1 0 0] CT
-6.5 13 moveto 
1 -1 scale
(fel) t 
GR
GR
GS
[0.75019 0 0 0.74925 183.04631 145.0751] CT
0.149 GC
/Helvetica 12 F
GS
[1 0 0 1 0 0] CT
-11.5 13 moveto 
1 -1 scale
(max) t 
GR
GR
GS
[0.75019 0 0 0.74925 117.40476 157.56252] CT
0.149 GC
/Helvetica 13.2 F
GS
[1 0 0 1 0 0] CT
-26 14 moveto 
1 -1 scale
(bemenet) t 
GR
GR
GS
[0.75019 0 0 0.74925 0 -0.07875] CT
0.149 GC
2 setlinecap
1 LJ
0.667 LW
N
69 190 M
69 17 L
S
GR
GS
[0.75019 0 0 0.74925 0 -0.07875] CT
0.149 GC
2 setlinecap
1 LJ
0.667 LW
N
244 190 M
244 17 L
S
GR
GS
[0.75019 0 0 0.74925 0 -0.07875] CT
0.149 GC
2 setlinecap
1 LJ
0.667 LW
N
69 190 M
70.75 190 L
S
GR
GS
[0.75019 0 0 0.74925 0 -0.07875] CT
0.149 GC
2 setlinecap
1 LJ
0.667 LW
N
69 17 M
70.75 17 L
S
GR
GS
[0.75019 0 0 0.74925 0 -0.07875] CT
0.149 GC
2 setlinecap
1 LJ
0.667 LW
N
244 190 M
242.25 190 L
S
GR
GS
[0.75019 0 0 0.74925 0 -0.07875] CT
0.149 GC
2 setlinecap
1 LJ
0.667 LW
N
244 17 M
242.25 17 L
S
GR
GS
[0.75019 0 0 0.74925 48.96238 142.27791] CT
0.149 GC
/Helvetica 12 F
GS
[1 0 0 1 0 0] CT
-7 5 moveto 
1 -1 scale
(0) t 
GR
GR
GS
[0.75019 0 0 0.74925 48.96238 12.65842] CT
0.149 GC
/Helvetica 12 F
GS
[1 0 0 1 0 0] CT
-7 5 moveto 
1 -1 scale
(1) t 
GR
GR
GS
[0 -0.74925 0.75019 0 41.71055 77.46811] CT
0.149 GC
/Helvetica 13.2 F
GS
[1 0 0 1 0 0] CT
-23.5 -3 moveto 
1 -1 scale
(kimenet) t 
GR
GR
GS
[0.75019 0 0 0.74925 0 -0.07875] CT
1 0 0 RC
1 LJ
2.667 LW
N
69 190 M
185.667 190 L
185.667 17 L
244 17 L
S
GR
GS
[0.75019 0 0 0.74925 51.7631 142.27791] CT
1 0 0 RC
10.0 ML
2.667 LW
N
-4 0 M
0 5.32 L
4 0 L
0 -5.32 L
cp
S
GR
GS
[0.75019 0 0 0.74925 139.28524 142.27791] CT
1 0 0 RC
10.0 ML
2.667 LW
N
-4 0 M
0 5.32 L
4 0 L
0 -5.32 L
cp
S
GR
GS
[0.75019 0 0 0.74925 139.28524 12.65842] CT
1 0 0 RC
10.0 ML
2.667 LW
N
-4 0 M
0 5.32 L
4 0 L
0 -5.32 L
cp
S
GR
GS
[0.75019 0 0 0.74925 183.04631 12.65842] CT
1 0 0 RC
10.0 ML
2.667 LW
N
-4 0 M
0 5.32 L
4 0 L
0 -5.32 L
cp
S
GR
GS
[0.75019 0 0 0.74925 0 -0.07875] CT
0 1 0 RC
[2 2] 0 setdash
2 LJ
2.667 LW
N
69 190 M
127.333 190 L
127.333 17 L
244 17 L
S
GR
GS
[0.75019 0 0 0.74925 51.7631 142.27791] CT
0 1 0 RC
10.0 ML
2.667 LW
N
4 0 M
4 -2.209 2.209 -4 0 -4 C
-2.209 -4 -4 -2.209 -4 0 C
-4 2.209 -2.209 4 0 4 C
2.209 4 4 2.209 4 0 C
cp
S
GR
GS
[0.75019 0 0 0.74925 95.52417 142.27791] CT
0 1 0 RC
10.0 ML
2.667 LW
N
4 0 M
4 -2.209 2.209 -4 0 -4 C
-2.209 -4 -4 -2.209 -4 0 C
-4 2.209 -2.209 4 0 4 C
2.209 4 4 2.209 4 0 C
cp
S
GR
GS
[0.75019 0 0 0.74925 95.52417 12.65842] CT
0 1 0 RC
10.0 ML
2.667 LW
N
4 0 M
4 -2.209 2.209 -4 0 -4 C
-2.209 -4 -4 -2.209 -4 0 C
-4 2.209 -2.209 4 0 4 C
2.209 4 4 2.209 4 0 C
cp
S
GR
GS
[0.75019 0 0 0.74925 183.04631 12.65842] CT
0 1 0 RC
10.0 ML
2.667 LW
N
4 0 M
4 -2.209 2.209 -4 0 -4 C
-2.209 -4 -4 -2.209 -4 0 C
-4 2.209 -2.209 4 0 4 C
2.209 4 4 2.209 4 0 C
cp
S
GR
GS
[0.75019 0 0 0.74925 0 -0.07875] CT
1 GC
N
302 190 M
477 190 L
477 17 L
302 17 L
cp
f
GR
GS
[0.75019 0 0 0.74925 0 -0.07875] CT
0.873 GC
1 LJ
0.667 LW
N
302 190 M
302 17 L
S
GR
GS
[0.75019 0 0 0.74925 0 -0.07875] CT
0.873 GC
1 LJ
0.667 LW
N
389.5 190 M
389.5 17 L
S
GR
GS
[0.75019 0 0 0.74925 0 -0.07875] CT
0.873 GC
1 LJ
0.667 LW
N
477 190 M
477 17 L
S
GR
GS
[0.75019 0 0 0.74925 0 -0.07875] CT
0.873 GC
1 LJ
0.667 LW
N
477 190 M
302 190 L
S
GR
GS
[0.75019 0 0 0.74925 0 -0.07875] CT
0.873 GC
1 LJ
0.667 LW
N
477 103.5 M
302 103.5 L
S
GR
GS
[0.75019 0 0 0.74925 0 -0.07875] CT
0.873 GC
1 LJ
0.667 LW
N
477 17 M
302 17 L
S
GR
GS
[0.75019 0 0 0.74925 0 -0.07875] CT
0.149 GC
2 setlinecap
1 LJ
0.667 LW
N
302 190 M
477 190 L
S
GR
GS
[0.75019 0 0 0.74925 0 -0.07875] CT
0.149 GC
2 setlinecap
1 LJ
0.667 LW
N
302 17 M
477 17 L
S
GR
GS
[0.75019 0 0 0.74925 0 -0.07875] CT
0.149 GC
2 setlinecap
1 LJ
0.667 LW
N
302 190 M
302 188.25 L
S
GR
GS
[0.75019 0 0 0.74925 0 -0.07875] CT
0.149 GC
2 setlinecap
1 LJ
0.667 LW
N
389.5 190 M
389.5 188.25 L
S
GR
GS
[0.75019 0 0 0.74925 0 -0.07875] CT
0.149 GC
2 setlinecap
1 LJ
0.667 LW
N
477 190 M
477 188.25 L
S
GR
GS
[0.75019 0 0 0.74925 0 -0.07875] CT
0.149 GC
2 setlinecap
1 LJ
0.667 LW
N
302 17 M
302 18.75 L
S
GR
GS
[0.75019 0 0 0.74925 0 -0.07875] CT
0.149 GC
2 setlinecap
1 LJ
0.667 LW
N
389.5 17 M
389.5 18.75 L
S
GR
GS
[0.75019 0 0 0.74925 0 -0.07875] CT
0.149 GC
2 setlinecap
1 LJ
0.667 LW
N
477 17 M
477 18.75 L
S
GR
GS
[0.75019 0 0 0.74925 226.55732 145.0751] CT
0.149 GC
/Helvetica 12 F
GS
[1 0 0 1 0 0] CT
-3.5 13 moveto 
1 -1 scale
(0) t 
GR
GR
GS
[0.75019 0 0 0.74925 292.19893 145.0751] CT
0.149 GC
/Helvetica 12 F
GS
[1 0 0 1 0 0] CT
-3.5 13 moveto 
1 -1 scale
(5) t 
GR
GR
GS
[0.75019 0 0 0.74925 357.84053 145.0751] CT
0.149 GC
/Helvetica 12 F
GS
[1 0 0 1 0 0] CT
-7 13 moveto 
1 -1 scale
(10) t 
GR
GR
GS
[0.75019 0 0 0.74925 292.19899 157.56252] CT
0.149 GC
/Helvetica 13.2 F
GS
[1 0 0 1 0 0] CT
-26 14 moveto 
1 -1 scale
(bemenet) t 
GR
GR
GS
[0.75019 0 0 0.74925 0 -0.07875] CT
0.149 GC
2 setlinecap
1 LJ
0.667 LW
N
302 190 M
302 17 L
S
GR
GS
[0.75019 0 0 0.74925 0 -0.07875] CT
0.149 GC
2 setlinecap
1 LJ
0.667 LW
N
477 190 M
477 17 L
S
GR
GS
[0.75019 0 0 0.74925 0 -0.07875] CT
0.149 GC
2 setlinecap
1 LJ
0.667 LW
N
302 190 M
303.75 190 L
S
GR
GS
[0.75019 0 0 0.74925 0 -0.07875] CT
0.149 GC
2 setlinecap
1 LJ
0.667 LW
N
302 103.5 M
303.75 103.5 L
S
GR
GS
[0.75019 0 0 0.74925 0 -0.07875] CT
0.149 GC
2 setlinecap
1 LJ
0.667 LW
N
302 17 M
303.75 17 L
S
GR
GS
[0.75019 0 0 0.74925 0 -0.07875] CT
0.149 GC
2 setlinecap
1 LJ
0.667 LW
N
477 190 M
475.25 190 L
S
GR
GS
[0.75019 0 0 0.74925 0 -0.07875] CT
0.149 GC
2 setlinecap
1 LJ
0.667 LW
N
477 103.5 M
475.25 103.5 L
S
GR
GS
[0.75019 0 0 0.74925 0 -0.07875] CT
0.149 GC
2 setlinecap
1 LJ
0.667 LW
N
477 17 M
475.25 17 L
S
GR
GS
[0.75019 0 0 0.74925 223.75661 142.27791] CT
0.149 GC
/Helvetica 12 F
GS
[1 0 0 1 0 0] CT
-11 5 moveto 
1 -1 scale
(-5) t 
GR
GR
GS
[0.75019 0 0 0.74925 223.75661 77.46817] CT
0.149 GC
/Helvetica 12 F
GS
[1 0 0 1 0 0] CT
-7 5 moveto 
1 -1 scale
(0) t 
GR
GR
GS
[0.75019 0 0 0.74925 223.75661 12.65842] CT
0.149 GC
/Helvetica 12 F
GS
[1 0 0 1 0 0] CT
-7 5 moveto 
1 -1 scale
(5) t 
GR
GR
GS
[0 -0.74925 0.75019 0 213.50402 77.46811] CT
0.149 GC
/Helvetica 13.2 F
GS
[1 0 0 1 0 0] CT
-23.5 -3 moveto 
1 -1 scale
(kimenet) t 
GR
GR
GS
[0.75019 0 0 0.74925 0 -0.07875] CT
1 0 0 RC
1 LJ
0.667 LW
N
302 103.5 M
303.75 92.653 L
305.5 81.996 L
307.25 71.651 L
309 61.824 L
310.75 52.655 L
312.5 44.282 L
314.25 36.843 L
316 30.459 L
317.75 25.235 L
319.5 21.238 L
321.25 18.54 L
323 17.173 L
324.75 17.173 L
326.5 18.54 L
328.25 21.238 L
330 25.235 L
331.75 30.459 L
333.5 36.843 L
335.25 44.282 L
337 52.655 L
338.75 61.824 L
340.5 71.651 L
342.25 81.996 L
344 92.653 L
345.75 103.5 L
347.5 114.347 L
349.25 125.004 L
351 135.349 L
352.75 145.176 L
354.5 154.345 L
356.25 162.718 L
358 170.157 L
359.75 176.541 L
361.5 181.765 L
363.25 185.762 L
365 188.46 L
366.75 189.827 L
368.5 189.827 L
370.25 188.46 L
372 185.762 L
373.75 181.765 L
375.5 176.541 L
377.25 170.157 L
379 162.718 L
380.75 154.345 L
382.5 145.176 L
384.25 135.349 L
386 125.004 L
387.75 114.347 L
389.5 103.5 L
391.25 92.653 L
393 81.996 L
394.75 71.651 L
396.5 61.824 L
398.25 52.655 L
400 44.282 L
401.75 36.843 L
403.5 30.459 L
405.25 25.235 L
407 21.238 L
408.75 18.54 L
410.5 17.173 L
412.25 17.173 L
414 18.54 L
415.75 21.238 L
417.5 25.235 L
419.25 30.459 L
421 36.843 L
422.75 44.282 L
424.5 52.655 L
426.25 61.824 L
428 71.651 L
429.75 81.996 L
431.5 92.653 L
433.25 103.5 L
435 114.347 L
436.75 125.004 L
438.5 135.349 L
440.25 145.176 L
442 154.345 L
443.75 162.718 L
445.5 170.157 L
447.25 176.541 L
449 181.765 L
450.75 185.762 L
452.5 188.46 L
454.25 189.827 L
456 189.827 L
457.75 188.46 L
459.5 185.762 L
461.25 181.765 L
463 176.541 L
464.75 170.157 L
466.5 162.718 L
468.25 154.345 L
470 145.176 L
471.75 135.349 L
473.5 125.004 L
475.25 114.347 L
477 103.5 L
S
GR
GS
[0.75019 0 0 0.74925 0 -0.07875] CT
0 0 1 RC
1 LJ
0.667 LW
N
302 103.5 M
303.75 103.5 L
305.5 103.5 L
307.25 103.5 L
309 103.5 L
310.75 103.5 L
312.5 86.2 L
314.25 86.2 L
316 86.2 L
317.75 86.2 L
319.5 86.2 L
321.25 86.2 L
323 86.2 L
324.75 86.2 L
326.5 86.2 L
328.25 86.2 L
330 86.2 L
331.75 86.2 L
333.5 86.2 L
335.25 86.2 L
337 86.2 L
338.75 86.2 L
340.5 86.2 L
342.25 103.5 L
344 103.5 L
345.75 103.5 L
347.5 103.5 L
349.25 103.5 L
351 103.5 L
352.75 103.5 L
354.5 103.5 L
356.25 103.5 L
358 103.5 L
359.75 103.5 L
361.5 103.5 L
363.25 103.5 L
365 103.5 L
366.75 103.5 L
368.5 103.5 L
370.25 103.5 L
372 103.5 L
373.75 103.5 L
375.5 103.5 L
377.25 103.5 L
379 103.5 L
380.75 103.5 L
382.5 103.5 L
384.25 103.5 L
386 103.5 L
387.75 103.5 L
389.5 103.5 L
391.25 103.5 L
393 103.5 L
394.75 103.5 L
396.5 103.5 L
398.25 103.5 L
400 86.2 L
401.75 86.2 L
403.5 86.2 L
405.25 86.2 L
407 86.2 L
408.75 86.2 L
410.5 86.2 L
412.25 86.2 L
414 86.2 L
415.75 86.2 L
417.5 86.2 L
419.25 86.2 L
421 86.2 L
422.75 86.2 L
424.5 86.2 L
426.25 86.2 L
428 86.2 L
429.75 103.5 L
431.5 103.5 L
433.25 103.5 L
435 103.5 L
436.75 103.5 L
438.5 103.5 L
440.25 103.5 L
442 103.5 L
443.75 103.5 L
445.5 103.5 L
447.25 103.5 L
449 103.5 L
450.75 103.5 L
452.5 103.5 L
454.25 103.5 L
456 103.5 L
457.75 103.5 L
459.5 103.5 L
461.25 103.5 L
463 103.5 L
464.75 103.5 L
466.5 103.5 L
468.25 103.5 L
470 103.5 L
471.75 103.5 L
473.5 103.5 L
475.25 103.5 L
477 103.5 L
S
GR
GS
[0.75019 0 0 0.74925 0 -0.07875] CT
1 GC
N
469 58 M
469 26 L
363 26 L
363 58 L
cp
f
GR
GS
[0.75019 0 0 0.74925 307.57782 26.0411] CT
/Helvetica 10.8 F
GS
[1 0 0 1 0 0] CT
0 4 moveto 
1 -1 scale
(kimenet) t 
GR
GR
GS
[0.75019 0 0 0.74925 0 -0.07875] CT
1 0 0 RC
1 LJ
0.667 LW
N
367 34.862 M
407 34.862 L
S
GR
GS
[0.75019 0 0 0.74925 307.57782 36.73803] CT
/Helvetica 10.8 F
GS
[1 0 0 1 0 0] CT
0 4 moveto 
1 -1 scale
(kompar\341tor) t 
GR
GR
GS
[0.75019 0 0 0.74925 0 -0.07875] CT
0 0 1 RC
1 LJ
0.667 LW
N
367 49.138 M
407 49.138 L
S
GR
GS
[0.75019 0 0 0.74925 0 -0.07875] CT
0.149 GC
10.0 ML
0.667 LW
N
363 58 M
363 26 L
469 26 L
469 58 L
cp
S
GR
%%Trailer
%%Pages: 1
%%EOF
